Automatic knowledge classification based on keyword co-occurrrence network • akc
…
# load pakcage
library(akc)
library(dplyr)
#> 
#> Attaching package: 'dplyr'
#> The following objects are masked from 'package:stats':
#> 
#>     filter, lag
#> The following objects are masked from 'package:base':
#> 
#>     intersect, setdiff, setequal, union

# inspect the built-in data
bibli_data_table
#> # A tibble: 1,448 × 4
#>       id title                                                   keyword abstr…¹
#>    <int> <chr>                                                   <chr>   <chr>  
#>  1     1 Keeping the doors open in an age of austerity? Qualita… Auster… "Engli…
#>  2     2 Comparison of Slovenian and Korean library laws         Compar… "This …
#>  3     3 Analysis of the factors affecting volunteering, satisf… Contin… "This …
#>  4     4 Redefining Library and Information Science education a… Curric… "The p…
#>  5     5 Can in-house use data of print collections shed new li… Check-… "Libra…
#>  6     6 Practices of community representatives in exploiting i… Commun… "The p…
#>  7     7 Exploring Becoming, Doing, and Relating within the inf… Librar… "Profe…
#>  8     8 Predictors of burnout in public library employees       Emotio… "Work …
#>  9     9 The Roma and documentary film: Considerations for coll… Academ… "This …
#> 10    10 Mediation effect of knowledge management on the relati… Job pe… "This …
#> # … with 1,438 more rows, and abbreviated variable name ¹​abstract
…
The entire cleaning processes include: 1.Split the text with
separators; 2.Reomve the contents in the parentheses (including the
parentheses); 3.Remove whitespaces from start and end of string and
reduces repeated whitespaces inside a string; 4.Remove all the null
character string and pure number sequences; 5.Convert all letters to
lower case; 6.Lemmatization (not in default setting because it is not
recommended unless you need a relatively rough result. For better
merging, use keyword_merge displayed below).

bibli_data_table %>% 
  keyword_clean() -> clean_data

clean_data
#> # A tibble: 5,378 × 2
#>       id keyword                          
#>    <int> <chr>                            
#>  1     1 austerity                        
#>  2     1 community capacity               
#>  3     1 library professional             
#>  4     1 public libraries                 
#>  5     1 public service delivery          
#>  6     1 volunteer relationship management
#>  7     1 volunteering                     
#>  8     2 comparative librarianship        
#>  9     2 korea                            
#> 10     2 library legislation              
#> # … with 5,368 more rows

Keyword merging

Merge keywords that have common stem or lemma, and return the
majority form of the word.

clean_data %>% 
  keyword_merge() -> merged_data

merged_data
#> # A tibble: 5,372 × 2
#>       id keyword                      
#>    <int> <chr>                        
#>  1  1163 10.7202/1063788ar            
#>  2   619 18th century                 
#>  3  1154 1password                    
#>  4    81 1science                     
#>  5   361 second-career librarianship  
#>  6   662 second life                  
#>  7  1424 2016 us presidential election
#>  8    42 21st-century skills          
#>  9  1114 21st century skills          
#> 10  1051 24-hour opening              
#> # … with 5,362 more rows
…
To extract keywords from the abstract using the keywords as a
dictionary. More pre-processing filter should be implemented afterward,
such as cleaning, keyword merging and filtering by term frequency or
tf-idf. It is suggested to keep the size down before using
keyword_group.

bibli_data_table %>%
  keyword_clean(id = "id",keyword = "keyword") %>%
  pull(keyword) %>%
  make_dict -> my_dict

bibli_data_table %>%
  keyword_extract(id = "id",text = "abstract",dict = my_dict) %>%
  keyword_merge(keyword = "keyword")
#> # A tibble: 27,130 × 2
#>       id keyword                      
#>    <int> <chr>                        
#>  1   619 18th century                 
#>  2  1223 18th century                 
#>  3  1154 1password                    
#>  4    81 1science                     
#>  5   983 1science                     
#>  6    15 2016 us presidential election
#>  7   662 3d environment               
#>  8   910 fourth museum assembly       
#>  9   624 55th library week            
#> 10   747 aasl standards               
#> # … with 27,120 more rows
…
