Tutorial for knowledge classification from raw text • akc
…
Inspect the data

In the dataset, we have the ID, title, keyword and abstract of
documents. We are going to use the keyword as the dictionary to extract
keywords from the abstract.

bibli_data_table
#> # A tibble: 1,448 × 4
#>       id title                                                  keyword abstract
#>    <int> <chr>                                                  <chr>   <chr>   
#>  1     1 Keeping the doors open in an age of austerity? Qualit… Auster… "Englis…
#>  2     2 Comparison of Slovenian and Korean library laws        Compar… "This p…
#>  3     3 Analysis of the factors affecting volunteering, satis… Contin… "This s…
#>  4     4 Redefining Library and Information Science education … Curric… "The pu…
#>  5     5 Can in-house use data of print collections shed new l… Check-… "Librar…
#>  6     6 Practices of community representatives in exploiting … Commun… "The pu…
#>  7     7 Exploring Becoming, Doing, and Relating within the in… Librar… "Profes…
#>  8     8 Predictors of burnout in public library employees      Emotio… "Work s…
#>  9     9 The Roma and documentary film: Considerations for col… Academ… "This p…
#> 10    10 Mediation effect of knowledge management on the relat… Job pe… "This p…
#> # ℹ 1,438 more rows
…
merged_keywords %>% 
  keyword_group() -> grouped_keywords

Get the grouped table

Getting the result as a table could be easy by:

grouped_keywords %>% 
  as_tibble()
#> # A tibble: 203 × 3
#>    name         freq group
#>    <chr>       <int> <int>
#>  1 library      1583     1
#>  2 information   583     1
#>  3 data          437     1
#>  4 librarians    398     1
#>  5 academic      351     2
#>  6 design        338     1
#>  7 analysis      301     1
#>  8 development   254     2
#>  9 collection    283     2
#> 10 research      589     1
#> # ℹ 193 more rows
…
