Extract keywords from raw text — keyword_extract • akc
…
  bibli_data_table %>%
    keyword_clean(id = "id",keyword = "keyword") %>%
    pull(keyword) %>%
    make_dict -> my_dict

  tidytext::stop_words %>%
    pull(word) %>%
    unique() -> my_stopword

 # \donttest{
  bibli_data_table %>%
    keyword_extract(id = "id",text = "abstract",
    dict = my_dict,stopword = my_stopword)
#> Joining with `by = join_by(keyword)`
#> # A tibble: 25,140 × 2
#>       id keyword                      
#>    <int> <chr>                        
#>  1   619 18th century                 
#>  2  1223 18th century                 
#>  3  1154 1password                    
#>  4    81 1science                     
#>  5   983 1science                     
#>  6    15 2016 us presidential election
#>  7   662 3d environment               
#>  8   624 55th library week            
#>  9   747 aasl standards               
#> 10   284 aboriginal                   
#> # ℹ 25,130 more rows
…
