Merge keywords that supposed to have same meanings — keyword_merge • akc
…
    See also

    stem_strings, lemmatize_strings

    Examples

library(akc)

# \donttest{
bibli_data_table %>%
  keyword_clean(lemmatize = FALSE) %>%
  keyword_merge(reduce_form = "stem")
#> # A tibble: 5,372 × 2
#>       id keyword                      
#>    <int> <chr>                        
#>  1  1163 10.7202/1063788ar            
#>  2   619 18th century                 
#>  3  1154 1password                    
#>  4    81 1science                     
#>  5  1424 2016 us presidential election
#>  6    42 21st-century skills          
#>  7  1114 21st century skills          
#>  8  1051 24-hour opening              
#>  9   662 3d environment               
#> 10  1252 3d reconstruction            
#> # ℹ 5,362 more rows

bibli_data_table %>%
  keyword_clean(lemmatize = FALSE) %>%
  keyword_merge(reduce_form = "lemma")
#> # A tibble: 5,372 × 2
#>       id keyword                      
#>    <int> <chr>                        
#>  1  1163 10.7202/1063788ar            
#>  2   619 18th century                 
#>  3  1154 1password                    
#>  4    81 1science                     
#>  5   361 second-career librarianship  
#>  6   662 second life                  
#>  7  1424 2016 us presidential election
#>  8    42 21st-century skills          
#>  9  1114 21st century skills          
#> 10  1051 24-hour opening              
#> # ℹ 5,362 more rows
…
