Automatic keyword cleaning and transfer to tidy format — keyword_clean • akc
…
    See also

    keyword_merge

    Examples

library(akc)

bibli_data_table

#> # A tibble: 1,448 x 4
#>       id title                  keyword                 abstract                
#>    <int> <chr>                  <chr>                   <chr>                   
#>  1     1 Keeping the doors ope~ Austerity; community c~ "English public librari~
#>  2     2 Comparison of Sloveni~ Comparative librarians~ "This paper aims to pro~
#>  3     3 Analysis of the facto~ Continuation will of v~ "This study aims to dev~
#>  4     4 Redefining Library an~ Curriculum; education ~ "The purpose of this st~
#>  5     5 Can in-house use data~ Check-out use; circula~ "Libraries worldwide ar~
#>  6     6 Practices of communit~ Community councillors;~ "The purpose of the res~
#>  7     7 Exploring Becoming, D~ Library and Informatio~ "Professional identity ~
#>  8     8 Predictors of burnout~ Emotional exhaustion; ~ "Work stress and profes~
#>  9     9 The Roma and document~ Academic libraries; co~ "This paper explores th~
#> 10    10 Mediation effect of k~ Job performance; knowl~ "This paper proposes a ~
#> # ... with 1,438 more rows

bibli_data_table %>%
  keyword_clean(id = "id",keyword = "keyword")

#> # A tibble: 5,378 x 2
#>       id keyword                          
#>    <int> <chr>                            
#>  1     1 austerity                        
#>  2     1 community capacity               
#>  3     1 library professional             
#>  4     1 public libraries                 
#>  5     1 public service delivery          
#>  6     1 volunteer relationship management
#>  7     1 volunteering                     
#>  8     2 comparative librarianship        
#>  9     2 korea                            
#> 10     2 library legislation              
#> # ... with 5,368 more rows
…
